[comment encoding = UTF-8 /]

[**
 * Generate all packages and import lines for each component.
 * packages imported is depending on the component type
 * For this first version, each component import is hard-coded, no matter than the component really need it or not.
*/]
[module generatePackages('http:///LibGdxMM.ecore')]

[**
 * Generate the package of a Game
*/]
[template public generatePackage(game: Game)]
package [game.gamePackage/];
[/template]

[**
 * Generate the package of a Screen
*/]
[template public generatePackage(game: Game, screen : Screen)]
package [game.gamePackage/].screens;
[/template]

[**
 * Generate the package of an Actor
*/]
[template public generatePackage(game: Game, actor : Actor)]
package [game.gamePackage/].actors;
[/template]

[**
 * Generate the package of a Role
*/]
[template public generatePackage(game : Game, role : Role)]
package [game.gamePackage/].roles;
[/template]


[**
 * Import pakages of a Game
*/]
[template public importPackage(game : Game)]
import com.badlogic.gdx.Game;
import com.badlogic.gdx.Gdx;
import com.badlogic.gdx.scenes.scene2d.ui.Image;
import [game.gamePackage/].[screens->asSequence()->first().name/];
[/template]

[**
 * Import pakages of a screen
*/]
[template public importPackage(screen : Screen, game : Game)]
import com.badlogic.gdx.Gdx;
import com.badlogic.gdx.Screen;
import com.badlogic.gdx.Game;
import com.badlogic.gdx.scenes.scene2d.Actor;
import com.badlogic.gdx.scenes.scene2d.Stage;
import com.badlogic.gdx.graphics.Texture;
import com.badlogic.gdx.graphics.g2d.TextureRegion;
import com.badlogic.gdx.scenes.scene2d.ui.Image;
import com.badlogic.gdx.audio.Music;
[for (actor : Actor | screen.actors)]
import [game.gamePackage/].actors.[actor.name/];
[/for]
[/template]

[**
 * Import packages that all Actors may needs
*/]
[template public importGeneralPackages(actor : Actor)]
import com.badlogic.gdx.Game;
import com.badlogic.gdx.Gdx;
import com.badlogic.gdx.Screen;
import com.badlogic.gdx.graphics.Texture;
import com.badlogic.gdx.scenes.scene2d.Actor;
import com.badlogic.gdx.scenes.scene2d.Stage;
import com.badlogic.gdx.graphics.g2d.*;
import com.badlogic.gdx.scenes.scene2d.ui.*;
import pji.lille1.chess.*;
[/template]


[**
 * Import pakages of an Actor
*/]
[template public importPackage(actor : Actor, parent : Screen, game : Game)]
[actor.importGeneralPackages()/]
import [game.gamePackage/].screens.[parent.name/];
import java.util.List;
import [game.gamePackage/].*;
import [game.gamePackage/].roles.collisions.*;
import [game.gamePackage/].entities.collisions.*;
[/template]


[template public importPackage(actor : PixelActor)]
[actor.importGeneralPackages()/]
[for (entity : Entity | actor.pixelEntities)]
[comment]import [entity.getPathPackage()/]; TODO[/comment]
[/for]
[/template]

[template public importPackage(actor : Grid2DActor, parent : Screen, game : Game)]
[actor.importGeneralPackages()/]
import java.util.LinkedList;
import java.util.List;
[for (role : Role | actor.pixelEntities.role->asSet())]
import [game.gamePackage/].roles.[role.name/];
[/for]
[for (role : Role | actor.gridEntities.role->asSet())]
import [game.gamePackage/].roles.[role.name/];
[/for]
[/template]

[template public importPackage(actor : Table)]
import com.badlogic.gdx.Game;
import com.badlogic.gdx.Gdx;
import com.badlogic.gdx.graphics.g2d.SpriteBatch;
import com.badlogic.gdx.scenes.scene2d.Actor;
import com.badlogic.gdx.scenes.scene2d.ui.Skin;
import com.badlogic.gdx.scenes.scene2d.ui.Table;
import com.badlogic.gdx.scenes.scene2d.ui.TextButton;
import com.badlogic.gdx.scenes.scene2d.utils.ChangeListener;
import com.badlogic.gdx.scenes.scene2d.utils.ChangeListener.ChangeEvent;
[/template]

[template public importPackage(entity : Entity)]
[/template]

[template public importPackage(role : Role, game : Game)]
import [game.gamePackage/].roles.collisions.*;
[/template]

[query public defaultPackage(game : Game) : String = 'src/' + game.gamePackage.replaceAll('\\.', '/') + '/'/]
[query public getPathPackage(game : Game) : String = defaultPackage(game) + name.concat('.java') /]
[query public getPathPackage(game : Game, screen : Screen) : String = defaultPackage(game) + 'screens/' + screen.name.concat('.java') /]
[query public getPathPackage(game : Game, actor : Actor) : String = defaultPackage(game) + 'actors/' + actor.name.concat('.java') /]
[query public getPathPackage(game : Game, role : Role) : String = defaultPackage(game) + 'roles/' + role.name.concat('.java') /]
[query public getCollisionsPathPackage(game : Game) : String = defaultPackage(game) + 'roles/collisions'/]
