[comment encoding = UTF-8 /]
[module generateGridActions('http:///LibGdxMM.ecore')]

[**
 * Génère la méthode canMoveAt, qui répond vrai si l'entité peut être déplacé à la case passée en paramètre
 * La reposne est fonction du (des) type(s) de mouvement(s) choisi(s)
*/]
[template public generateGridAction(gridRole : GridRole)]
public boolean canMoveAt(GridEntity['['/]]['['/]] grid, int fromX, int fromY, int toX, int toY) {
[for (moveGridAction : MoveGridAction | gridRole.moveGridActions) separator ('\n')]
	[moveGridAction.canMoveAt()/]
[/for]
	return false;
}
[/template]

[template public canMoveAt(moveGridAction : MoveGridAction)/]

[template public canMoveAt(horizontal : HorizontalMoving) ? (horizontal.canJumpOtherEntities = BooleanEnum::True)]
// Test for horizontal moving
if(fromY == toY) {
	int diff = Math.abs(fromX - toX);
	if(diff >= [horizontal.nbCasesMin/] && diff <= [horizontal.nbCasesMax/]) {
		return true;
	}
}
[/template]

[template public canMoveAt(horizontal : HorizontalMoving) ? (horizontal.canJumpOtherEntities = BooleanEnum::False)]
// Test for horizontal moving
if(fromY == toY) {
	int diff = Math.abs(fromX - toX);
	if(diff >= [horizontal.nbCasesMin/] && diff <= [horizontal.nbCasesMax/]) {
		boolean isOk = true;
		int from = Math.min(fromX, toX) + 1;
		int to = Math.max(fromX, toX) - 1; 
		while(isOk && from <= to) {
			if(grid['['/]fromY]['['/]from] != null) {
				isOk = false;
			}
			else {
				from++;
			}
		}
		if(isOk) {
			return true;
		}
	}
}
[/template]

[template public canMoveAt(vertical : VerticalMoving) ? (vertical.canJumpOtherEntities = BooleanEnum::True)]
// Test for vertical moving
if(fromX == toX) {
	int diff = Math.abs(fromY - toY);
	if(diff >= [vertical.nbCasesMin/] && diff <= [vertical.nbCasesMax/]) {
		return true;
	}
}
[/template]

[template public canMoveAt(vertical : VerticalMoving) ? (vertical.canJumpOtherEntities = BooleanEnum::False)]
// Test for vertical moving
if(fromX == toX) {
	int diff = Math.abs(fromY - toY);
	if(diff >= [vertical.nbCasesMin/] && diff <= [vertical.nbCasesMax/]) {
		boolean isOk = true;
		int from = Math.min(fromY, toY) + 1;
		int to = Math.max(fromY, toY) - 1; 
		while(isOk && from <= to) {
			if(grid['['/]from]['['/]fromX] != null) {
				isOk = false;
			}
			else {
				from++;
			}
		}
		if(isOk) {
			return true;
		}
	}
}
[/template]

[template public canMoveAt(diagonal : DiagonalMoving) ? (diagonal.canJumpOtherEntities = BooleanEnum::True)]
// Test for diagonal moving
if(fromX - fromY == toX - toY || fromX + fromY == toX + toY) {
	return true;
}
[/template]

[template public canMoveAt(diagonal : DiagonalMoving) ? (diagonal.canJumpOtherEntities = BooleanEnum::False)]
// Test for diagonal moving
if(fromX - fromY == toX - toY) {
	int testFromX = Math.min(fromX, toX) + 1;
	int testToX = Math.max(fromX, toX) - 1;
	int testFromY = Math.min(fromY, toY) + 1;
	int testToY = Math.max(fromY, toY) - 1;
	boolean isOk = true;

	while(isOk && testFromX <= testToX) {
		if(grid['['/]testFromX]['['/]testFromY] != null) {
			isOk = false;
		}
		testFromX++;
		testFromY++;
	}
	if(isOk) {
		return true;
	}
}
else if (fromX + fromY == toX + toY) {
	int testFromX = Math.min(fromX, toX) - 1;
	int testToX = Math.max(fromX, toX) + 1;
	int testFromY = Math.min(fromY, toY) + 1;
	int testToY = Math.max(fromY, toY) - 1;
	boolean isOk = true;

	while(isOk && testFromX >= testToX) {
		if(grid['['/]testFromX]['['/]testFromY] != null) {
			isOk = false;
		}
		testFromX--;
		testFromY++;
	}
	if(isOk) {
		return true;
	}
}
[/template]

[template public canMoveAt(custom : CustomMoving)]
// TODO: create your own moving test
[/template]
