[comment encoding = UTF-8 /]
[module generateGames('http:///LibGdxMM.ecore')]
[import LibGdx_generation::main::entities::generatePosition /]
[import LibGdx_generation::main::actors::generateGridActors /]
[import LibGdx_generation::main::actors::generatePixelActors /]

[**
 * Génère les attributs spécifiques pour chaque type de jeu
*/]
[template public attributes(actor : GameActor)]
[actor.worldAttributes()/]

[actor.timeAttributes()/]
[/template]


[**
 * Génère les attributs permettant la gestion du temps
 * Pour les jeux au tour par tour, il s'agit du joueur à qui c'est le tour
 * 
*/]
[template public timeAttributes(actor : GameActor)/]
[template public timeAttributes(actor : GameActor) ?(actor.engine.oclIsTypeOf(TurnBasedEngine))]
/**
  * the number of players who are still playing for this game
  */
private int nbPlayers;

/**
  * The current player, who is playing
  */
private int currentPlayer;
[/template]

[template public worldAttributes(actor : GameActor)]
[for (factory : RoleFactory | actor.roleFactory) separator ('\n')]
/** 
  * the number of elapsed *act* method since the last creation of [factory.role.name/]
  **/
private int nbAct_[factory.role.name/];
[/for]
[/template]

[template public initRoles(actor : GameActor)/]
[template public createEntities(actor : GameActor)/]

[template public showContent(actor : GameActor)]
Stage stageScreen = screen.getStage();

// Initialize all roles
[actor.initRoles()/]

// Create all instances of all roles
[actor.createEntities()/]
[/template]

[template public actContent(actor : GameActor)/]

[template public actContent(actor : Grid2DActor)]
Stage stage = screen.getStage();
[actor.actContentTime()/]
[/template]

[template public actContent(actor : PixelActor)]
Stage stage = screen.getStage();
[actor.actContentTime()/]
/* remove all entities wich aren't into the screen */
for(int i = entities.size() - 1; i > 0; i--) {
	Image im = entities.get(i);
	if(im.getX() + im.getWidth() > this.getWidth() ||im.getX() < 0 ||
       im.getY() > this.getHeight() ||im.getY() +im.getHeight() < 0) {
		removeEntity(entities.get(i));
	}
}

/* Move all entities */
for(Entity e : entities) {
	e.move();
}

[for (factory : RoleFactory | actor.roleFactory) separator ('\n')]
/* Create a new [factory.role.name/] if it's time */
if(nbAct_[factory.role.name/] >= [factory.timeToCreate/]) {
	if(nbAct_[factory.role.name/] >= [factory.timeToCreate + factory.slackTime/] ||
       Math.random() >= 100.f/[factory.slackTime/]) {
		[factory.role.name/] factoryEntity = new [factory.role.name/]();
		factoryEntity.setBounds(
			[factory.xCreatedPosition.generatePosition()/],
			[factory.yCreatedPosition.generatePosition()/],
			getWidth() / 12,
			getHeight() / 12
		); 
		entities.add(factoryEntity);
		nbAct_[factory.role.name/] = 0;
	}
}
nbAct_[factory.role.name/]++;
[/for]

/* Test all collisions for each entity  */
collisions();
[/template]

[template public actContentTime(actor : GameActor)/]

[template public actContentTime(actor : GameActor) ?(actor.engine.oclIsTypeOf(TurnBasedEngine))]
/* It's now at the next player to play */
currentPlayer = (numPlayer + 1) % nbPlayers;
[/template]


[template public collisionsMethod(actor : Actor)]
public void collisions() {
	[actor.collisionsContent()/]
}
[/template]


[template public collisionsContent(actor : Actor)]
Entity first, other;
for(int i = entities.size() - 1; i > 0; i--) {
	first = entities.get(i);
	for(int j = i - 1; j >= 0; j--) {
		other = entities.get(j);
		if(first.overlaps(other)) {
			first.accept(this, other);
			other.accept(this, first);
		}
	}
}
[/template]
