[comment encoding = UTF-8 /]
[module generateGridActors('http:///LibGdxMM.ecore')]
[import LibGdx_generation::main::entities::generateEntities /]

[template public initRoles(actor : Grid2DActor)]
[for (role : Role | actor.pixelEntities.role->union(actor.gridEntities.role)->asSet()) separator ('\n')]
[role.name/].init();
[/for]
[/template]

[template private createEntities(actor : Grid2DActor)]
float cellWidth = getWidth() / [actor.gridWidth/];
float cellHeight = getHeight() / [actor.gridHeight/];
GridEntity entityActor;

[for (entity : PixelEntity | actor.pixelEntities) separator ('\n')]
entityActor = new [entity.role.name/]();
entities.add(entityActor);
[entity.bounds(actor, 'entityActor')/]
[/for]

[for (entity : GridEntity | actor.gridEntities) separator ('\n')]
entityActor = new [entity.role.name/]();
[entity.bounds(actor, 'entityActor')/]
setEntityAt(entityActor, [entity.absPosition/], [entity.ordPosition/]);
entities.add(entityActor);
[entity.enableActions()/]
[/for]
[/template]

[template private enableActions(entity : GridEntity)]
addListener((([entity.role.name/])entityActor).dragListener(this));
[/template]


[template public constructor(actor : Grid2DActor)]
super(screen.getGame(), [actor.gridWidth/], [actor.gridHeight/]);
vec = new Vector2();
shapeRenderer = new ShapeRenderer();
[/template]

[template public drawContent(actor : Grid2DActor)]
for(Entity e : entities) {
	e.draw(batch, parentAlpha);
}
[actor.drawGrid()/]
[/template]

[template private drawGrid(actor : Grid2DActor) ? (actor.gridColor <> Color::None)]
// Draw the grid of the game
float cellWidth = getWidth() / gridEntities['['/]0].length;
float cellHeight = getHeight() / gridEntities.length;
batch.end();

vec.set(getX(), getY());
this.localToStageCoordinates(vec);
shapeRenderer.begin(ShapeType.Line);
	shapeRenderer.setColor(Color.[actor.gridColor.toString().toUpper()/]);
	// Draw all vertical lines
	for (int i = 0; i <= gridEntities.length; i++) {
		shapeRenderer.line(i * cellWidth, 0, i * cellWidth, getHeight());
	}
	
	// Draw all horizontal lines
	for (int i = 0; i <= gridEntities.length; i++) {
		shapeRenderer.line(0, i * cellHeight, getWidth(), i * cellHeight);
	}
shapeRenderer.end();

batch.begin();
[/template]

[template public worldAttributes(actor : Grid2DActor)]
/**
  * A private vector for rendering Grid
  */
private Vector2 vec;

/**
  * A private renderer for grid
  */
private ShapeRenderer shapeRenderer;
[/template]