[comment encoding = UTF-8 /]
[module generateTable('http:///LibGdxMM.ecore')]
[import LibGdx_generation::main::actors::generateWidgets /]
[import LibGdx_generation::main::generatePackages /]

[template public constructor(table : Table)]
/* Load the skin of the menu */
skin = new Skin(Gdx.files.internal("data/ui/skins/skin.json"));
setSkin(skin);
[/template]

[template public attributes(table : Table)]
private Skin skin;
[/template]

[template public showContent(table : Table)]
Actor widget;

/* Create each component & add it to the Table */
[for (widget : Widget | table.widgets) separator ('\n')]
[widget.createWidget()/]
row();
[/for]

pack();
[/template]